20 200
1.19304 1.46169 1.30347 1.04477 0.848336 1.22381 0.822923 1.15747 1.10544 0.996373 1.17772 1.24525 1.21086 1.29542 1.28875 1.20064 1.42057 1.16442 1.37057 1.22675 1.43033 0.838012 0.869169 0.827502 1.31835 1.09039 1.07682 0.937828 1.1656 0.900094 0.842523 0.875677 0.859953 1.44415 1.0399 1.05358 0.982498 0.813719 1.38173 1.07932 1.25934 1.26803 1.23481 1.24294 1.03434 0.801399 1.24947 0.966705 0.871598 0.977244 1.26233 1.45076 1.46375 0.892987 1.3716 1.41022 1.01631 0.999144 1.0726 1.42876 0.814414 1.15528 1.25729 0.926353 1.46276 1.2136 1.38318 1.41639 1.20839 0.972443 1.18915 0.945041 0.976849 0.995288 1.29178 1.45961 1.3272 1.22093 1.32163 0.984529 1.20641 1.18939 1.39492 1.16208 0.819588 1.34138 1.0239 1.27257 0.902225 1.19069 0.969417 0.815364 0.920176 1.42356 1.3933 0.912378 1.20182 1.04625 0.830101 1.31864 0.882875 1.06347 0.995896 1.36337 0.841154 0.83607 1.15068 1.43201 1.49308 1.33185 1.0361 1.23101 1.36644 1.13007 1.27263 1.36117 1.05041 0.916087 1.05992 1.21585 1.01969 1.00553 0.96846 0.849481 0.854978 0.893462 1.45251 1.45683 0.95906 1.07395 1.38484 0.832601 0.823492 1.0712 1.162 0.894298 0.975849 0.947773 1.3945 1.39234 1.14077 0.924784 0.866095 1.38502 1.01877 1.30526 1.47023 1.06754 1.46861 1.36291 1.47385 0.813795 0.902845 1.07828 1.25585 1.0899 1.0037 1.35853 1.41555 0.915894 1.0105 1.09766 1.20833 0.971983 1.46685 1.1813 1.47547 1.02419 1.38012 1.20354 1.42199 0.974145 1.11871 1.04139 1.15599 0.98621 1.39032 1.0791 1.15374 1.02818 0.894843 1.31825 1.20191 1.36074 1.10307 1.25774 1.34574 1.37919 1.3746 1.03896 0.984735 0.888616 1.44811 0.831472 0.966225 1.04099 0.924456 0.91837 0.932159 1.44329 
0.858931 1.21536 1.21505 1.2895 1.09114 1.14615 1.23852 1.15317 1.47409 1.25352 1.2347 0.881941 0.974365 0.862543 0.962801 1.12101 1.08525 1.13623 1.01768 1.23225 0.923353 1.32582 0.813429 1.29269 1.07156 1.31778 1.13475 1.04449 1.21164 1.46884 0.86085 0.924821 0.863907 1.08181 1.49579 1.00704 1.10613 0.845908 1.42344 1.42734 0.967463 0.819773 1.46224 0.858207 1.07176 1.2037 1.40137 1.40918 1.46156 1.38293 1.32677 0.835154 1.39687 0.888827 1.4955 1.07175 1.46999 0.827334 1.28944 1.08664 1.48769 1.47054 1.04687 1.03439 1.46157 1.46519 1.02923 1.22729 0.895957 1.07456 1.49393 1.25877 1.40994 1.20829 1.05283 0.960475 1.02819 1.31026 1.10196 1.14881 0.863314 1.2802 1.1164 1.16681 0.823326 0.921522 1.39657 1.17329 0.843219 1.34956 1.37199 1.41719 1.06715 1.11984 1.35571 1.26281 1.16669 0.986317 1.30749 0.990874 1.46312 1.17703 1.25859 1.31871 0.8212 1.08297 0.915427 1.21571 1.2084 1.17465 1.31296 0.915395 1.32035 0.818987 1.21348 1.10584 0.965431 1.04801 1.17534 1.49168 1.41396 1.17038 0.955563 1.00718 1.46114 1.10137 1.35977 1.44392 1.37247 0.841496 1.2942 1.13893 1.46238 1.13538 1.06426 1.10079 0.939042 1.2603 1.40077 0.824839 1.02013 1.48071 1.3962 1.09865 1.05479 1.17655 1.30461 1.18494 1.38425 1.08033 1.10479 1.33466 0.880762 0.88593 1.41337 1.14662 1.21405 1.41281 1.00214 1.4126 0.870071 1.23115 1.23479 1.01661 1.06398 1.24917 1.02156 1.231 0.931029 0.863765 0.925648 1.05634 1.01871 1.37836 1.3262 1.44389 1.1141 1.31435 1.24811 1.3887 0.926285 1.46877 1.41987 0.906962 0.923305 1.12316 0.823543 0.938107 1.05639 1.47966 1.22682 1.21779 1.09974 1.48017 1.29114 1.255 1.04521 0.920004 1.24949 1.00729 
1.48584 0.817657 1.3741 1.26351 1.21035 1.12878 1.36232 1.47051 0.973143 1.30863 1.04667 1.35765 1.40679 1.15418 1.08945 1.03392 1.01105 0.961007 1.06898 1.05288 1.40628 0.933668 1.00344 1.23343 1.45114 1.09842 1.44613 1.17957 1.12013 0.95303 1.11506 1.35446 0.822073 0.931183 1.31052 1.36598 1.39481 1.44678 0.805494 1.47592 1.04863 1.04356 1.20642 1.09652 1.15192 0.882641 0.88683 1.05966 1.42794 1.29549 1.28156 0.898757 1.18623 1.13618 0.831175 1.22348 1.33474 1.41395 0.908321 1.13979 1.07844 0.996738 1.21222 0.97525 1.30851 1.42373 1.4543 1.48831 0.997074 0.956011 1.39052 1.41529 1.26855 1.15021 1.33159 0.96234 0.904007 1.40579 1.02308 0.993652 1.46294 1.24132 1.24317 1.34184 1.02032 0.95219 1.27278 1.34559 1.43077 0.815872 1.00324 1.21119 1.22437 0.806066 1.19128 1.44302 1.3501 1.13279 1.37669 1.42909 1.04464 0.861645 1.3596 0.929127 1.21765 0.805761 1.26926 0.824738 1.02999 1.1946 1.44587 0.933731 1.39229 1.01113 1.24433 1.44612 1.37887 1.41723 1.49114 0.938481 1.01889 1.38999 1.12833 1.18632 1.19063 0.973133 1.24708 1.27274 0.898108 1.33662 1.07625 0.896862 0.935186 1.0129 1.0166 1.15155 1.33572 1.15356 1.37467 0.872399 1.28501 1.45473 1.0152 1.43045 0.840338 1.46521 0.962633 0.871391 0.977237 1.19875 0.966396 0.826492 0.852533 1.11284 1.22548 1.33566 1.28837 1.28147 1.30841 1.48265 1.45919 1.20389 1.12262 1.03751 1.24291 0.853733 0.987126 1.21786 1.13369 0.83604 0.927809 1.17611 0.941777 1.44912 1.33299 1.05083 1.18641 1.24822 1.49016 1.36955 0.813882 0.993983 1.21343 0.890528 0.964638 1.06383 1.35211 1.38723 1.08987 0.959931 0.813144 1.29982 0.813522 1.11611 0.978148 1.47561 1.42038 1.12338 0.949057 1.03445 
1.2753 0.863545 1.19597 1.34249 1.48867 0.849156 1.02761 1.44343 1.13499 1.18252 1.27148 1.04346 1.10518 1.28908 0.95421 1.23072 0.987347 1.07212 1.40702 1.33999 1.27159 1.48668 1.46066 0.846424 1.39389 0.985243 1.15715 0.985942 1.17153 0.885478 0.870558 1.23937 1.33325 1.20806 1.27886 1.38256 1.45875 1.46305 1.22631 1.27948 1.07009 1.08641 1.16031 1.49828 0.818333 1.15809 1.18232 1.14219 1.14865 1.27221 1.24509 1.35382 1.16235 0.883196 0.880113 0.811218 1.24572 0.945886 1.16667 0.996648 1.48904 0.962946 0.945803 1.3567 1.23742 0.866527 0.914418 0.925466 1.15521 1.46168 1.1226 1.04483 1.18245 1.06471 1.00718 0.915998 0.898808 1.13978 1.43185 1.34886 1.17417 1.16612 1.04723 0.807906 1.13082 0.975022 0.895777 1.449 1.00928 0.883928 1.24416 1.17788 1.10878 0.817089 0.886841 0.909945 0.882078 0.809018 1.04074 1.38388 1.42261 1.49803 1.04096 1.20231 1.47593 1.45389 1.0045 1.43613 1.05281 1.06921 1.30896 0.910293 1.0908 0.904746 1.19656 0.803661 1.37832 0.950059 1.18145 1.00153 1.27211 1.03279 1.47788 1.24931 1.2322 1.08 0.816153 1.42394 1.07454 1.41679 1.37791 1.23457 1.01604 0.942631 0.914634 1.22524 0.859425 0.89534 1.42187 0.937522 0.928181 0.9763 1.09617 0.90317 0.85253 1.46656 1.01224 1.49002 1.22214 0.931543 1.36226 1.01375 1.11259 0.997875 1.37754 0.993173 1.32123 1.30779 0.984873 1.27829 0.939427 1.21726 0.827156 1.39308 1.42985 1.32782 1.01795 1.04346 1.0982 0.89294 0.806202 0.896756 1.21032 0.894938 1.15182 1.29441 1.41595 1.26862 1.24934 1.31315 1.42252 1.25172 0.952306 0.986505 1.15411 0.953164 1.42488 1.44456 1.49052 1.21165 1.15225 0.876017 1.46659 1.2893 0.917746 0.803453 1.0526 0.835485 1.0323 1.31512 
1.49897 0.923285 1.41209 0.885468 0.994438 1.46404 1.41673 0.95048 1.2994 1.05034 1.39659 1.23764 1.40466 1.40879 1.45928 0.936873 1.15767 1.07299 1.13185 1.35119 1.44939 0.914645 1.05518 0.982199 1.17281 1.41248 1.39162 0.920031 1.21932 1.37901 1.34084 1.29652 1.04841 1.4575 0.908279 0.803887 0.914535 1.02563 1.45642 1.08754 0.881973 1.09678 1.29934 0.974666 1.0056 1.10351 1.31085 1.29082 1.20759 0.983026 1.36611 0.915794 0.837128 0.872162 0.957628 1.21989 1.21372 0.83004 1.3557 0.937001 0.912845 1.13203 1.28228 1.43119 1.32202 1.37473 1.41671 0.939638 0.968692 0.803808 0.935077 0.9351 1.29971 0.890377 0.998303 1.19143 1.44772 1.02138 0.804842 1.45398 1.48404 1.35905 1.48243 1.2493 0.851387 1.35919 1.4354 1.13027 1.00012 1.23341 1.28089 1.36033 0.967933 1.06542 1.4768 1.45384 1.33833 1.21458 0.837492 1.23403 1.47953 1.49204 0.984353 0.878491 1.04575 1.35432 1.11277 1.32155 1.06377 0.874339 1.37766 0.912415 1.22952 1.21626 1.42126 1.34848 0.972659 0.851752 1.37454 0.86798 1.4916 1.49951 1.2871 1.09804 1.38631 0.86653 1.19409 1.21152 1.48769 1.40607 0.902001 0.943763 1.26829 1.36994 1.02358 1.20699 1.20385 1.43892 1.39576 1.38403 1.47617 1.34107 0.844119 0.80141 1.38321 0.854497 0.875777 1.28274 1.33281 1.30751 1.2423 0.903492 0.998888 1.0421 1.12961 1.00238 0.994241 1.27396 1.1756 0.896509 0.944461 1.08081 1.21185 1.34771 1.33701 1.40049 1.2803 0.838697 1.43516 1.0546 0.90925 1.14935 0.969236 1.40342 1.20608 1.33107 1.39887 0.855962 1.43911 1.26419 0.816701 1.32771 0.848415 0.872709 0.836424 1.38301 1.0686 1.17312 0.904435 1.37954 1.0748 1.23833 0.97775 1.27206 1.29039 1.11541 1.10532 1.31804 0.99895 1.30229 
1.43881 1.16358 1.41287 0.986253 1.09554 1.15589 0.906021 1.42413 0.939489 0.8976 1.23099 1.29301 1.05963 1.0583 1.14645 0.854382 0.85498 1.42147 1.26477 1.16822 1.08372 0.897122 1.29543 1.27612 1.17521 1.04928 1.30813 0.843642 1.3327 1.21592 0.837561 0.807537 1.32617 1.09863 1.03088 1.21536 0.977266 0.837438 1.14404 1.31932 1.01347 1.22097 1.26857 1.00971 0.867557 1.03899 0.922987 0.977384 1.47242 1.27697 1.43179 1.43997 1.17236 1.09909 1.0852 1.01312 1.28088 1.42543 0.867486 1.15556 1.4011 0.887188 1.47531 1.30657 1.28233 1.23857 1.38452 1.24677 1.04176 0.81905 1.22195 1.07411 0.959001 1.38159 0.982623 1.06903 1.0733 0.821895 1.07142 1.18276 1.0122 1.37123 0.965651 1.17011 1.48287 1.02014 1.14835 1.43498 0.811279 1.23923 1.48526 0.960375 0.926181 1.41867 1.25602 1.1801 1.36927 1.09871 1.32127 0.914831 1.04081 0.936251 1.06228 1.49242 0.904622 1.4967 1.14846 1.04444 0.814667 1.31517 0.949906 1.05475 1.14329 1.43737 1.25391 1.29037 1.33887 0.860268 1.01761 0.877646 1.20097 1.00265 0.943084 1.0114 1.35488 1.46525 1.08959 0.824651 1.023 1.46616 1.08562 0.848991 0.939499 0.986597 1.28832 1.33517 1.19397 1.04756 1.05477 1.2224 0.904813 1.41366 1.1406 0.863091 1.40689 1.2316 1.44895 1.16873 1.04172 1.1286 0.890887 1.33375 0.969782 1.01887 1.26198 0.865246 1.00832 1.47382 0.837973 0.981822 0.933438 1.22035 0.883879 1.17028 1.11447 1.2125 0.81924 1.25472 1.40716 1.22057 0.988795 1.28164 0.829674 1.46674 1.09823 0.983536 1.13501 1.3574 1.13055 1.44407 1.23578 0.889637 1.14098 0.801674 1.49826 1.4352 1.49884 1.02389 0.831898 1.03882 1.07808 0.932156 1.49585 0.8433 1.20469 0.916457 1.42157 1.06189 1.44506 1.18981 
1.25712 0.818079 1.38445 1.42846 0.897022 1.14576 0.949821 1.29125 0.851437 1.24087 0.992474 0.954871 0.93855 0.845979 0.858672 1.23458 1.49418 1.40405 1.49457 1.48024 0.815402 0.913441 0.934869 1.4818 0.91484 1.1867 1.07604 0.859112 0.974696 1.3893 1.42634 1.48333 0.971814 1.4579 1.3244 1.05227 1.07694 1.04419 1.23125 0.987357 1.48499 1.05122 0.953793 1.09623 0.830822 0.83808 1.40191 1.1569 1.27544 1.29361 1.24196 1.42666 0.886504 1.0752 1.24764 1.1506 0.989743 1.08862 1.19858 1.48575 1.0839 1.19625 1.41859 1.09282 1.45055 1.47585 1.3398 1.01219 1.01493 0.877144 1.30568 0.977999 1.01125 1.23623 1.44545 0.925956 1.24223 0.907826 1.43544 1.35431 1.45036 1.38982 1.34493 1.15305 0.890978 1.21767 0.802133 1.14313 1.49805 1.18099 1.19189 1.08043 1.34406 1.30522 1.2462 1.46363 1.19866 1.38296 0.925009 0.912669 1.30606 1.06747 1.22813 1.34536 1.33031 0.955696 0.834134 1.13839 1.33398 1.3365 0.848636 0.846146 1.07861 1.35564 1.3011 1.13261 1.26747 1.38006 1.32014 1.34574 1.14555 0.836766 1.22871 0.915209 1.09986 0.944177 0.860664 1.00173 1.42153 1.27212 1.0421 1.42004 1.46731 1.38424 1.49748 0.858799 0.998829 1.02757 0.899799 1.49161 1.33515 0.886592 1.12598 1.48185 0.844872 1.49151 1.4611 1.32392 0.841526 1.3145 1.15003 1.18582 1.4816 1.05131 1.1467 1.11005 1.4303 0.865748 1.46345 1.47232 1.17554 0.960927 0.983011 1.11932 1.01786 1.18986 1.35889 1.45148 1.27685 0.803975 1.47376 1.40896 1.09377 1.10706 1.03234 0.971437 1.02179 1.31209 0.985854 1.46029 0.86141 1.21404 1.32221 0.974258 0.999878 1.43216 1.16947 1.00521 1.27885 1.10387 1.16302 1.02519 0.821608 0.857839 1.47893 1.47125 1.36926 0.827224 0.925577 1.21516 
1.1214 0.841486 0.910689 1.42354 1.45649 0.841538 0.93289 1.05118 1.3007 0.915676 1.3275 0.97369 1.09273 1.24299 1.24309 0.914087 1.29986 1.04807 1.42679 0.904031 1.34387 1.40944 1.31954 0.812648 1.33669 1.12403 1.41989 1.41354 0.818171 1.061 0.827541 0.869914 0.976713 0.881534 1.06678 1.31356 1.36977 0.873611 1.11078 0.96842 1.30346 1.27781 1.44604 1.08194 1.14383 1.37034 0.802616 1.39901 1.47845 1.18153 1.13988 1.29643 1.43227 1.15874 1.07381 1.36902 0.890812 0.865168 0.96489 1.25903 1.02552 0.970772 0.910592 1.45241 0.970429 0.802621 1.11605 0.926231 0.915219 0.862819 1.45643 0.911171 1.05813 1.44356 1.39283 1.10877 0.816557 1.19406 0.987018 1.08685 1.13999 1.11703 1.16758 1.02375 0.985986 1.34873 1.04119 0.826619 1.18445 1.00365 1.28395 1.35497 1.29769 0.89084 1.30167 1.46569 1.22708 1.25346 1.03064 0.924934 0.929247 1.37209 0.879316 1.35942 1.32043 1.26442 1.08789 0.980521 1.06887 1.10889 1.36253 0.86469 1.242 0.825995 1.34881 1.08808 0.860791 1.14698 1.02079 1.12893 1.10129 1.12873 1.03547 0.897299 1.36349 1.07215 1.28954 1.13048 0.984087 1.03439 0.833783 1.07111 1.22231 1.29878 1.47002 1.40904 1.385 1.1157 0.968439 0.969914 1.35538 1.02879 1.22837 1.2325 1.27207 1.36227 1.13006 1.05311 1.18644 1.29382 1.36232 0.911765 1.2859 1.4803 1.08275 1.35278 1.49627 0.812144 1.34779 0.999254 1.03817 0.929056 0.989425 1.33793 1.02208 1.31515 1.47764 1.35921 1.28637 0.943196 1.0666 0.874047 1.22653 1.41683 1.08221 0.965107 0.830567 0.936601 1.34721 1.02383 1.01552 1.43093 1.2481 0.962133 1.4945 0.822777 1.03565 1.37254 0.986627 0.931001 1.12067 1.30778 1.2851 1.17553 0.988485 1.22749 0.902822 0.8813 1.09733 1.42029 
1.06331 1.20483 0.82256 1.2979 1.27787 1.02717 1.2786 0.919736 1.4476 1.30001 0.926362 1.0381 1.42097 0.9278 1.31403 1.3683 1.29475 1.00098 0.873715 1.00787 1.44955 1.46718 1.28917 0.849748 1.26618 1.10476 0.931873 0.86417 0.862121 0.889085 1.04726 0.850674 1.41413 1.05616 0.809465 1.25203 1.35653 1.05059 0.956957 0.861019 1.12639 1.07947 1.03014 1.44958 1.28533 1.14997 0.980723 1.3462 0.919979 1.44526 1.48179 1.27568 1.35317 1.07302 1.33976 1.32491 1.44089 1.02566 0.943938 1.36657 1.00942 1.00332 1.15921 1.1422 0.95497 1.30003 1.4039 1.10207 0.904647 1.18781 1.40541 1.21916 1.28117 1.27536 1.01648 1.1204 0.992587 1.46318 1.1017 0.987802 1.19726 1.46595 1.29592 1.31961 1.49529 0.940203 1.1854 0.970088 0.865614 1.47349 1.2832 0.90874 0.862819 1.0468 0.845128 1.1515 1.41964 1.36652 1.32489 1.16684 1.15009 1.44598 1.08316 0.84336 0.956999 1.04273 0.888443 1.33482 1.39987 1.22488 1.19832 1.13039 1.35941 1.25683 0.981128 0.953581 1.26349 0.840297 1.43132 1.39744 0.930479 1.12938 0.934476 1.24493 0.908431 1.31149 0.891255 1.10135 0.854406 0.994573 0.853817 0.849029 1.04759 1.11289 1.33527 1.0929 1.241 1.46001 1.4159 0.829572 0.973364 1.31809 1.15798 1.10182 0.90314 1.02876 0.981727 1.19906 0.893148 1.30193 1.44917 0.932781 1.32469 1.37038 1.15959 0.918519 1.0203 1.26741 1.23579 0.859541 0.976035 1.06335 0.970452 1.35018 1.16825 0.912961 1.18768 0.951566 1.20348 1.44929 1.08932 0.857058 1.33905 0.935602 0.978431 0.980455 0.954153 1.24814 1.21261 0.90214 1.09045 1.10369 0.968992 1.22417 1.19874 1.25775 1.34622 1.46452 1.19167 1.30885 1.11179 1.32978 1.03987 1.23103 1.21755 1.23276 1.36796 1.32489 0.967666 1.19255 
0.999345 1.04126 0.857151 1.23421 1.4276 1.49293 1.07605 0.901117 0.9487 1.16208 1.43618 0.97315 0.890381 1.06093 1.0092 1.2738 0.902791 1.10417 0.919075 1.22153 1.10277 1.30875 0.929389 1.0215 1.22197 1.03835 1.30006 1.37317 1.1808 1.21329 1.47584 1.30242 1.27952 0.980333 1.44352 1.12892 1.06617 1.07899 1.15101 1.16001 1.05725 1.0185 0.9516 0.918246 1.2375 1.01938 0.827329 0.839552 1.41543 1.02139 0.963085 1.28638 1.34416 1.01875 1.19259 1.32279 0.838827 1.39767 1.2654 1.28946 1.05577 1.15266 1.10424 1.06697 1.29142 1.12406 0.967761 1.25973 0.923483 1.39126 0.873961 0.944589 1.29515 1.35979 0.959766 1.42163 1.12047 1.07026 1.20849 0.932275 1.49823 1.32779 1.06187 0.97108 1.00265 0.873203 1.37278 1.39521 1.3241 1.48337 1.20493 1.02285 0.873505 0.88695 1.4527 1.1702 0.948067 1.27906 1.48934 1.3837 1.36261 1.09147 1.47689 0.828778 0.909701 1.46488 1.11256 1.38193 1.48491 0.905944 1.32088 1.2551 1.44766 0.917494 1.03125 1.35388 0.937706 1.42076 1.055 1.45162 1.07171 0.825804 0.992328 0.977403 0.906407 1.15616 1.19199 1.1813 1.14561 1.49965 1.3199 1.3888 1.04209 1.03684 1.10723 1.4666 0.947286 0.916724 1.05372 1.24323 1.38653 0.966792 0.986166 1.27227 1.13732 1.16028 1.2756 0.89946 0.842489 1.42017 1.1117 1.40398 1.08911 0.838299 1.43645 1.2653 0.95184 0.927535 1.05389 1.4644 1.03145 1.22116 1.24672 1.19765 0.883521 0.995644 0.844416 1.02281 1.07029 0.909257 1.35334 1.14052 1.12359 0.943454 1.10494 1.09634 0.826908 1.00669 0.85357 1.345 0.879447 0.816345 1.45718 0.941101 0.887656 1.32706 1.31213 1.08945 1.39 0.824836 0.921434 1.20931 1.02987 0.962232 1.37255 1.29476 0.805405 1.10997 0.960187 1.13424 
1.34253 0.904717 1.24883 1.45996 0.855473 0.87805 1.11254 1.22382 1.48779 1.29989 1.17379 0.929177 0.832907 0.866257 0.827536 1.49031 1.07114 1.25717 1.19237 1.21452 0.957283 0.820506 0.945146 1.01974 1.08533 1.06097 1.01146 1.42387 0.841918 1.04113 0.888058 0.815642 0.906365 1.18567 0.913729 1.15889 1.46608 0.956156 0.855234 1.39621 0.926185 1.28163 1.3275 1.06714 1.02743 0.886331 1.33074 0.918881 1.08839 1.20798 0.812493 0.999252 1.29329 1.22075 1.12184 0.962769 1.026 1.25552 0.907789 1.00287 1.02314 1.31618 0.929176 0.994983 0.895929 0.829675 1.1953 0.84069 1.25243 1.31069 1.44687 0.958961 0.882489 0.882808 0.910434 1.17595 1.10058 1.0834 1.21042 1.20733 1.28347 1.21411 1.37143 1.20444 1.4339 1.25113 1.26661 1.48289 1.45084 0.877772 1.06487 1.10169 1.45976 1.15874 1.0922 1.13736 1.09464 1.22392 1.26353 1.01442 1.17092 1.2391 1.38083 1.16142 0.9708 0.926988 1.13578 1.34718 1.08207 1.111 1.07282 0.952888 0.849091 1.05113 1.21176 0.935749 1.47518 1.43874 1.04941 1.38946 1.12967 1.05482 1.36205 0.853888 0.975138 1.40518 1.18806 0.858845 1.04789 0.882064 0.99537 0.82499 1.17467 1.25677 1.31182 1.48502 0.911555 1.32042 1.45751 1.30714 1.3979 1.44747 0.858588 1.06696 0.922368 1.28155 0.809659 1.10011 0.91673 1.09311 1.42343 1.2434 0.898208 1.17218 1.46272 0.93005 0.938619 1.36386 1.33895 1.29252 1.12582 0.943326 1.18125 0.939406 0.999349 0.849092 1.05746 1.04766 0.932313 1.25961 1.19056 1.16577 1.24428 1.2894 1.33159 1.28137 0.910121 1.38382 1.25594 1.39922 0.906563 1.27862 1.41729 0.85308 1.05083 1.28859 1.16419 1.04738 1.31435 1.46686 1.00325 1.3915 1.23048 1.03965 1.083 1.27527 1.28853 1.03403 1.06973 0.993798 
1.19967 1.28151 1.05732 1.18646 1.327 1.30709 1.34511 1.41235 1.14114 1.34644 1.25081 1.23939 1.48679 1.29128 1.22385 0.884812 1.17687 1.40163 1.42031 1.10039 1.40634 1.22019 1.4408 1.05864 1.36971 0.887586 1.41893 1.10647 1.31015 1.08722 1.23263 1.47917 1.1135 1.04017 1.41041 1.21868 1.33533 1.28418 1.20757 1.43876 0.939504 0.942269 1.1431 1.2601 1.07633 1.29683 1.21919 1.08412 1.06606 1.24367 1.01023 1.09801 1.16818 1.26576 1.03243 1.13709 0.878661 1.05159 1.34044 1.42052 0.9441 1.34056 1.10897 1.42244 1.4953 1.04793 0.966092 1.14726 1.39304 1.43699 0.913495 1.37615 0.883198 0.860306 1.33112 0.856785 1.09838 0.897961 1.27937 0.897664 1.40042 1.02813 1.29696 1.37644 1.32735 1.47416 1.06516 0.884034 1.30143 1.16686 0.934326 0.823128 0.862624 0.941077 1.49626 1.36633 0.857585 0.811757 1.27947 1.36432 1.19925 0.919124 0.842955 0.971366 0.901044 1.27568 0.85102 0.811552 1.11861 1.34929 0.913243 1.31375 0.842699 1.09427 1.44921 0.820387 1.45542 1.36058 0.901655 1.26598 0.865489 1.08626 0.963133 1.17258 0.80309 0.974582 1.09611 1.49193 1.11814 0.885801 1.38007 1.13452 1.31808 0.801912 0.912484 1.18849 1.15037 1.40565 1.18017 1.315 0.972911 1.41533 1.45385 1.33476 1.05054 0.809469 1.49077 0.889779 1.25102 0.978487 0.984632 0.992596 1.22273 0.879336 1.24477 1.27083 1.06596 1.05338 0.89652 1.20273 0.994668 1.27908 1.19778 1.07657 1.25726 1.17297 0.994475 0.843381 0.858326 1.16989 0.852709 0.983278 1.32681 1.3389 1.33978 0.967592 0.825485 1.37621 1.37997 1.31946 0.839052 1.29896 1.18091 0.949301 0.865123 1.31297 1.33833 1.09105 1.13533 0.954224 1.09905 0.953117 1.42217 1.03969 1.15348 1.24036 0.858993 1.09011 1.02123 1.10741 
1.0063 1.15901 0.801968 1.09592 1.00346 1.30984 1.22495 1.43055 1.31777 1.26422 0.974742 0.968069 1.4182 1.07387 1.21096 0.972885 0.901523 1.12907 1.198 1.4026 1.13019 1.45662 1.21351 1.22068 0.962389 1.48047 1.33171 1.44574 0.94906 1.02645 1.18125 1.06098 1.3202 1.35605 1.10824 1.18373 1.29828 1.35863 1.32073 1.06696 1.09373 1.42907 1.4837 1.00413 1.18437 1.24573 1.35907 1.49403 1.28964 1.16878 1.28783 0.916243 1.17799 1.28613 1.24348 1.25895 1.22425 1.15748 0.993818 1.47286 0.926303 0.839924 1.45556 1.03325 1.33307 1.47826 0.933144 1.45145 1.30946 1.27256 0.824648 1.28419 1.15507 1.10416 1.25901 1.27885 1.19455 1.00578 0.966918 0.85609 0.92264 1.21982 0.898786 1.05331 0.832629 1.39552 1.13327 1.17451 0.860231 1.07152 0.814955 1.0611 1.28423 0.988103 1.2467 0.824851 1.22826 1.28618 0.965043 0.813698 1.10185 1.29824 1.11196 1.34441 1.1089 0.804427 1.0094 0.87448 1.01495 1.01369 0.813783 1.26344 1.2999 1.36854 0.947053 0.937151 1.02737 1.49608 1.28334 1.48511 1.06745 1.38601 0.901221 0.803176 1.21489 1.08727 1.26355 1.02169 0.918776 1.10397 1.25629 1.13516 1.10505 1.05433 1.42973 1.29787 1.02018 1.44981 1.44171 1.0635 1.48808 1.26626 0.871657 1.08959 1.45332 1.38179 1.46098 0.868661 1.16843 1.10648 1.08659 0.867367 1.05843 0.800111 1.23353 1.30905 1.4793 1.17806 0.896903 1.0351 1.11046 1.09309 0.901742 1.36313 1.07512 1.48019 0.818072 1.43933 0.989447 1.04272 0.859221 1.01302 1.10489 1.3125 1.13816 1.29541 1.16611 1.02032 1.47159 1.24452 1.42491 1.10317 1.45111 1.42699 0.93353 1.25861 1.14487 1.42576 1.09621 0.84533 1.31502 1.11652 0.984348 1.33613 1.25517 0.830951 1.38269 0.954568 1.2782 1.37744 
0.960451 0.845969 1.05373 0.895785 1.08588 1.29568 1.05613 1.19338 1.29248 1.20819 1.18349 1.10684 1.33028 1.02321 1.43804 1.0883 1.3998 0.952873 1.04121 1.44087 0.964432 1.01435 1.39072 1.43554 1.22287 1.46648 0.882823 1.38939 1.12876 1.03112 0.812758 1.28884 0.825049 1.4023 1.0046 1.35235 1.42946 1.02444 1.47288 1.45915 1.0919 1.158 1.36888 1.4901 1.41255 1.29003 0.804984 1.12235 1.17762 1.48915 1.0459 1.46987 0.954022 1.39703 1.4017 1.31341 1.36232 1.1786 0.973492 1.20981 0.858315 1.37657 1.05832 0.970791 1.33748 1.34467 1.36068 1.26945 0.827311 0.921483 1.40861 1.26461 1.35506 0.982275 1.42417 1.35984 1.44158 1.34902 1.44185 0.936075 1.07641 0.891206 1.28189 0.937671 1.40053 1.47763 1.37457 1.32036 1.264 1.25634 0.864036 0.914476 1.38224 0.922629 1.01192 0.858574 1.42861 1.03874 0.800227 1.38226 1.49185 1.13477 1.01312 1.33344 0.909767 1.22864 1.22714 1.05169 1.10449 1.28179 1.24382 1.37636 1.02409 1.19797 0.925516 0.923109 0.941624 0.834703 1.34637 0.89345 0.818912 0.844504 1.25904 1.1942 1.13839 0.877196 1.31493 0.900996 1.03039 1.09555 1.12154 1.49625 1.10621 1.22009 1.02551 1.34716 0.88318 1.05976 0.824422 1.40765 0.877467 1.1004 1.49613 0.819005 1.18179 0.901637 1.32945 1.19619 0.982935 1.46722 1.22847 1.09099 1.36433 0.984831 1.01263 0.988897 1.48866 1.37637 0.842752 0.933747 1.069 1.03309 1.17133 1.25028 0.805284 0.935217 1.4056 0.965755 0.851091 1.33191 1.45004 0.878818 1.29686 0.917187 0.8557 1.12844 0.909332 1.47983 1.02391 1.25995 1.29134 1.15376 0.906418 0.966639 1.21193 1.08095 1.01664 1.12846 1.37313 1.09914 0.856429 1.3785 0.887048 1.33103 0.897407 1.30556 0.820227 1.13037 1.12483 0.879007 
1.47121 1.16278 1.28441 1.4565 1.05291 1.38669 1.24571 1.0423 1.13338 0.92606 1.179 0.856794 1.29084 0.960522 1.34168 1.21372 1.14631 1.46856 1.01783 1.0909 0.861728 1.30512 1.02262 1.38606 1.08351 0.995107 1.05118 1.4326 1.39407 1.37824 0.92027 0.803789 1.16073 1.06641 1.33555 1.04803 1.02204 0.935499 0.947495 1.21719 0.944697 0.882057 1.12381 1.34534 0.938223 1.29784 1.14439 1.16663 0.915074 1.01863 1.45451 0.880553 0.958508 0.810212 1.30305 1.19275 1.37432 1.0356 1.3763 0.926475 1.02913 1.18172 1.07945 0.925691 1.00907 1.33885 0.973389 1.1179 0.937989 1.39008 0.878455 0.90979 1.11894 1.03241 1.03344 0.857549 1.0787 1.34705 1.03667 0.81512 1.40078 1.15575 0.965752 0.874812 1.48583 1.47558 1.04397 0.848696 0.883885 1.2674 0.836236 1.2044 1.15108 1.40972 1.37555 1.03909 0.896359 0.805259 1.46713 0.865276 1.44228 1.35272 1.03717 1.11136 0.897314 1.12426 1.04198 1.24217 1.03455 1.28314 1.4299 1.49739 1.27558 1.46319 1.08816 1.11155 1.11162 1.11233 0.980264 1.01523 1.07245 1.48907 1.30473 1.38314 0.9373 1.45528 0.990294 1.00534 1.02594 0.827909 1.13711 1.49724 1.14264 1.48679 1.15686 1.09967 1.32893 0.873148 1.42658 1.40866 1.48051 0.908389 1.06567 1.05321 0.863779 0.997522 1.40963 1.41948 1.37044 1.16595 0.805663 1.2585 1.37028 1.35874 1.12081 1.31241 1.28229 1.2655 1.34563 1.06145 0.907295 1.45472 1.09123 1.26585 0.856325 0.855423 1.16039 1.07531 0.86753 1.00107 1.42907 0.861437 0.917483 1.17847 1.08745 1.26952 1.4713 0.954927 0.814823 0.846296 1.21525 0.831666 0.949937 0.81302 0.944858 1.46226 1.36507 0.843422 0.997623 1.45071 1.08379 1.20914 1.3338 0.992787 1.34887 1.46354 1.33164 1.20344 0.802577 0.82298 
1.11181 0.86151 0.964836 1.01332 0.915884 0.97077 1.001 0.801181 1.38354 1.11769 1.1736 1.32072 0.951235 0.865197 1.38781 0.986001 1.44959 1.09516 1.03755 1.10974 1.2604 0.820121 1.26097 1.18381 1.22879 1.16884 0.914015 0.883561 0.984547 1.41329 0.843657 1.31825 1.12152 1.0749 0.819745 1.45912 0.882817 1.41877 1.28323 1.3111 0.811872 0.857647 0.954784 0.937511 0.827985 0.895616 1.39304 1.32121 1.00788 0.801515 0.900278 1.01055 1.3017 1.47316 0.93182 1.27099 1.07036 0.871145 1.46353 1.44228 1.02222 0.997155 1.45489 1.44181 0.803361 1.40634 1.41707 1.21893 1.01656 1.40314 1.43155 1.34933 1.1313 1.29045 1.04842 0.834379 1.07545 1.27454 1.45057 1.35473 0.915939 1.29238 1.30226 1.40477 1.34621 1.4661 1.02032 0.92913 1.14661 1.09113 1.37217 0.873227 1.46328 0.904123 1.43087 1.05173 1.13155 0.81046 0.872435 0.966357 1.43228 1.24176 1.3719 1.03683 1.24257 1.35006 0.956112 1.40108 1.26806 0.965802 1.13257 1.10143 0.903303 1.47076 0.907401 1.33225 0.801709 1.36454 0.801463 1.36955 1.38433 0.850251 1.37707 1.15837 0.855227 0.908784 0.847762 1.16549 0.863514 1.30463 1.33218 1.43552 1.05708 0.866598 0.977457 1.31649 1.01116 1.39491 1.48116 1.10019 1.20532 0.820642 1.21566 0.861919 1.34175 1.05206 1.02597 1.44997 1.41229 0.959664 0.851066 0.82121 0.891738 1.01624 1.33551 1.08024 1.14852 0.878181 0.993075 0.885955 0.910397 0.850529 1.01468 1.49426 1.31017 1.04668 0.842136 1.4033 1.079 1.00045 0.811393 1.28794 1.05234 1.05476 1.11323 1.03164 1.27317 1.34685 1.19477 0.852839 1.24951 1.0232 1.0424 1.14284 0.892836 1.06854 1.27599 1.37497 0.989072 1.14914 0.81489 0.88722 1.33051 0.897136 1.09994 0.833939 1.41064 1.39613 1.30893 1.13211 
1.13024 0.854195 0.955883 1.35103 1.06011 1.16703 1.25288 1.0243 1.15718 1.16791 0.844723 1.36042 1.04551 0.883701 0.97781 1.16366 1.16512 1.12701 1.04808 1.41648 0.929683 1.11641 1.03839 1.35037 0.915134 1.25034 0.934372 1.09097 0.974886 1.09645 0.934316 0.848548 1.39198 1.30166 1.41727 1.07146 1.4815 0.91199 1.25851 0.847286 0.977823 1.24774 1.06383 0.947747 1.00705 1.43257 0.812293 1.38452 1.46008 0.837773 0.908419 1.35932 0.817095 1.22618 0.881628 1.06757 0.886448 1.0997 1.23069 1.01422 1.14036 1.37902 1.00343 1.14549 1.09105 1.16969 1.20573 0.947393 1.1297 1.17836 1.25075 0.926388 1.1787 1.4224 1.38979 1.3683 1.01553 1.46701 0.862934 1.3247 0.889649 1.34183 1.03143 0.989304 0.841523 0.952809 0.956059 0.840557 0.93946 1.00274 1.43965 1.16154 0.932254 1.35743 1.23559 1.03699 1.18789 0.926029 0.875981 1.21997 0.809863 1.45506 1.32693 1.43009 0.823559 1.02018 1.32343 1.00479 1.46793 1.22166 0.894339 0.960733 0.864349 0.801974 1.33212 1.17842 1.28935 0.940702 0.806669 1.16486 0.943513 1.41052 1.20947 1.43168 1.23707 1.32461 1.0884 0.955117 0.822879 0.955823 1.00375 1.0336 1.20264 0.809456 1.21764 1.27378 0.91147 1.20214 0.939693 1.12159 1.13176 1.19381 1.38159 1.46746 1.12685 1.42442 0.8382 1.0821 0.921986 1.10325 1.15264 1.44374 1.31557 1.36636 1.3508 0.942257 1.00987 1.20385 1.2772 0.878764 1.14984 1.46452 1.36446 0.890055 1.09163 1.48271 1.22121 1.47728 0.910213 0.836395 0.866595 0.840102 1.26038 1.28951 1.06625 0.98033 1.11366 0.902609 1.17101 1.13272 1.04704 0.887694 1.31672 0.869179 1.25967 1.42685 1.20885 1.19992 1.48072 1.08163 1.33084 1.33574 1.22075 1.40389 1.1309 1.04406 0.904271 1.07927 1.2061 1.46289 
0.838556 1.22306 0.971189 1.4228 1.00795 1.06205 0.87304 0.985391 1.32306 0.81741 1.4307 0.981095 1.2567 1.40971 1.41431 1.21227 1.28252 1.39873 0.967347 0.878156 1.43061 1.06386 1.47223 1.45687 1.495 0.801918 1.28861 1.17046 1.10827 1.3956 1.16572 0.961802 1.04428 0.905191 1.37913 1.33391 0.884522 1.0706 0.832439 1.48323 1.08923 1.17998 0.980877 1.21764 0.89576 0.877207 1.44809 0.80665 1.20147 1.12202 1.3426 1.1413 1.41025 0.815616 0.976278 1.12239 1.41011 0.920408 0.940542 1.24405 1.14003 1.34461 1.34489 0.9352 0.859636 1.12389 1.48769 1.14595 1.24787 1.35841 0.860994 1.11851 0.914174 1.35196 1.09559 0.881043 1.31083 0.987979 0.993044 0.936887 1.31428 0.877548 1.17769 0.91408 1.05143 0.988379 1.43926 1.40283 1.43564 1.35163 1.24977 1.01475 0.850858 1.05516 1.12821 1.48953 0.936103 1.13227 1.00883 0.811544 0.818087 1.34298 0.987739 1.11834 1.10279 0.854296 1.33304 0.848797 1.4963 1.45707 1.11398 1.48365 1.02319 1.20996 1.06494 1.32824 0.917383 1.20215 1.22465 0.826608 0.881657 0.948149 0.931392 0.986596 0.834459 0.952286 0.817653 1.19826 0.979834 0.849536 1.30197 1.26171 1.17007 1.30818 0.943674 1.31251 0.903803 1.04268 1.02875 1.00182 1.12746 1.38954 1.3826 1.36386 1.07798 1.46394 1.13082 0.980878 0.898101 1.03876 0.933047 0.903227 1.07687 1.17819 1.47598 1.12422 0.989662 0.990349 1.40474 0.93111 0.885543 0.937681 1.3131 1.25031 1.12507 1.40737 1.10568 0.872736 1.17527 0.986227 1.33542 1.23031 1.18388 1.45634 1.06124 0.977217 1.38266 0.816833 0.890358 0.863976 1.37657 1.33067 0.928164 0.844192 0.959214 1.12346 1.45813 1.12484 1.31508 1.38857 1.00659 1.15028 0.950273 0.929183 1.21641 1.45518 0.850452 1.32522 1.14825 1.2239 
0.894333 0.843561 0.873587 1.20702 1.01804 0.89087 1.21564 1.14148 1.31426 1.15959 1.31246 0.837478 1.44968 0.829539 1.1946 0.884731 0.873196 0.892349 1.30062 1.35737 1.0061 0.899101 1.28001 1.33108 1.30886 1.43581 1.28442 1.48497 0.921122 1.13461 0.832084 1.22624 1.48641 1.49096 1.3895 1.24347 1.31479 1.30548 1.08362 0.936027 0.917239 1.28476 1.00444 0.846624 1.04493 1.47673 1.24963 1.16489 1.39615 1.08199 0.805018 1.42096 1.2546 0.953578 0.936085 1.41939 1.44775 1.42069 1.29121 1.23057 1.47249 0.921446 0.966478 1.40022 0.866735 1.3448 1.49084 1.28027 1.4909 0.85581 1.32133 1.48291 0.980906 1.49993 1.36634 1.04808 0.898383 0.864913 0.830126 0.91819 0.997253 1.25272 1.42782 0.936811 1.38986 0.986218 1.25821 1.45318 0.819943 0.881385 1.47818 1.41432 1.35555 0.849535 1.32101 0.886262 0.854649 0.868198 0.805698 1.38141 1.16015 1.30174 1.09954 1.26559 0.80725 0.981944 1.40589 1.40867 1.29109 1.00535 0.884835 1.23109 1.16434 1.42372 1.29231 0.845423 1.33518 0.898839 1.35858 1.14245 1.37224 1.36414 1.26347 1.08649 1.08246 1.10038 1.25216 1.357 0.859715 1.11205 0.875817 1.17501 1.01449 1.45512 0.889621 1.19896 0.966204 1.46452 0.83913 1.11432 1.23963 1.11482 1.39902 1.17444 0.851454 1.24699 1.36258 1.2727 1.37995 1.40596 1.39926 1.1352 0.944388 1.21211 0.856252 0.844243 0.860773 1.19149 1.07847 1.41753 1.25505 1.27958 1.12555 0.988922 1.12526 1.47175 1.33559 1.08416 1.33108 1.29855 1.25788 1.06468 0.86105 1.42153 1.18753 1.01274 1.46582 1.1283 1.49695 1.47917 1.42576 1.38641 1.33729 0.803243 1.03332 0.938653 0.996133 1.35738 0.911516 1.01413 1.42044 1.07002 0.840998 1.20297 0.966881 1.37672 1.25935 1.4575 1.04127 1.05698 
1.09354 1.01098 0.850071 1.11107 1.21685 1.15381 1.30135 1.16202 1.00286 1.24808 1.13527 1.0047 1.30737 1.24476 1.2095 0.895052 0.998924 1.14095 1.14697 1.1657 1.42659 1.35086 1.26221 1.35438 1.36814 1.01906 1.34058 0.977648 0.858342 0.976733 1.18934 1.24275 1.4296 1.12089 0.989979 0.908733 0.937098 1.21383 0.848671 1.01833 1.40256 1.37743 1.40788 1.05559 1.16251 0.998069 1.34708 1.2345 0.88469 1.44759 1.11598 1.15985 1.48664 0.858646 1.30096 1.24536 0.812574 0.846004 0.986772 1.07829 0.978009 1.24101 0.874793 1.02858 1.49027 0.879611 0.919909 1.29728 0.87603 0.870458 0.972884 1.28966 1.21666 1.18557 1.04858 1.13054 0.956514 1.02714 0.891684 0.981934 0.809661 1.02604 1.08036 1.44805 0.863087 1.12552 1.21251 0.920381 0.833847 1.41117 0.909046 1.1228 1.45323 1.13249 1.32848 1.07234 1.24736 1.48362 0.900516 1.25193 1.2728 1.41244 0.84989 1.12974 1.33694 1.3003 0.910056 0.872156 1.22869 1.25778 1.46927 1.34226 0.965477 1.24245 1.20784 1.39924 1.20229 1.40468 0.951821 0.953521 1.34554 1.32901 1.43444 1.40409 1.41222 1.24727 0.854549 1.10504 1.39416 1.37233 1.33621 1.39372 0.912647 1.25524 0.915545 1.02205 0.952153 1.15541 1.39826 1.20923 1.0297 1.03591 0.993678 0.892103 1.09252 1.43828 1.32904 0.827254 1.00021 1.49365 1.41177 1.14886 1.28006 0.921035 0.906345 1.43786 0.800974 1.32583 1.06111 0.973297 0.91788 1.16011 0.964163 0.855184 1.10103 1.20465 1.24887 1.35516 1.35341 1.26515 1.43505 0.922248 1.32353 1.46824 1.2626 0.999128 1.07003 1.41825 1.21603 1.29849 1.48535 1.47873 0.815887 1.03829 1.31712 1.23663 1.01359 0.987513 1.16145 0.897813 1.47042 1.4125 0.968108 1.43957 1.02507 1.33845 1.30344 1.00906 1.24817 1.0636 
