20 200
1.42175 1.43023 1.08996 0.994287 1.47233 0.802531 1.30171 1.09178 1.19142 0.910397 1.24948 0.995847 0.856385 1.41093 1.1152 1.12745 1.44155 0.889452 0.93078 1.30769 1.13797 0.925814 1.43084 0.955587 0.882278 0.854181 1.43115 1.48188 1.27193 1.36796 1.2714 1.43877 1.3311 1.31524 1.04737 0.829965 1.47418 1.29145 0.888419 0.85027 1.24086 1.26481 0.848795 1.48157 1.39986 1.49585 1.46225 1.4575 1.44689 1.02698 1.42078 1.45335 1.02618 0.961609 1.17917 1.24559 1.02201 1.29847 1.12628 1.33142 1.21403 1.19126 1.01157 0.846482 1.39112 1.02625 1.40442 0.924491 1.05058 1.02228 1.07272 1.44224 0.947303 1.34216 1.05675 1.3057 1.33826 0.923284 1.43325 1.43208 1.16886 1.18316 0.943031 0.921344 0.838941 0.997634 1.03321 1.10176 0.855467 1.35956 1.31885 1.45897 1.27073 1.38713 0.812782 1.40858 0.859254 1.22736 0.971525 0.872859 1.38224 1.2412 0.81005 1.04964 0.91365 1.1553 0.939491 1.35012 0.946361 1.28455 0.931741 1.04011 1.19925 1.08791 1.47776 1.12476 0.872575 1.06502 1.38968 0.899216 0.824841 1.48667 0.839246 1.39104 1.00982 1.17154 1.09646 0.832855 0.956863 1.08232 1.10799 1.02821 1.17729 1.22243 0.906025 0.894106 1.06026 1.39426 1.26815 1.26219 1.16282 1.35137 1.02172 1.27803 0.929428 1.16394 0.926831 1.402 1.39722 1.42928 0.838006 1.11487 0.942502 0.802422 1.17219 1.3041 1.41629 1.2125 1.20974 1.31007 1.09101 1.30181 0.845992 1.1657 1.28011 0.9801 0.887322 1.48008 1.15821 1.30946 1.01354 0.93897 0.843524 1.02861 0.814181 1.48856 1.18405 1.02444 0.969628 1.23806 0.985675 1.01066 1.2974 1.43717 0.851488 1.31642 1.1783 0.844346 1.17328 1.36881 1.2217 0.905907 0.842342 1.34063 1.38733 1.29892 1.1679 0.870409 0.859666 1.24648 
0.893429 1.03784 1.37149 1.32269 0.979185 1.21734 1.45151 1.11675 1.03022 1.14845 1.3722 1.47297 1.40014 0.861789 1.17108 1.13111 1.1351 0.994286 0.978848 1.0013 0.937211 1.14668 1.19158 1.49838 1.30663 1.16335 1.05774 1.45185 1.02564 0.884856 1.09496 0.860111 0.893356 1.22796 0.935797 0.857034 1.13503 0.893033 0.900364 1.07894 1.4146 1.23768 1.40139 0.826843 1.44035 0.981132 1.49167 1.38042 1.40673 1.07 1.14217 1.04297 1.01182 1.33361 1.1548 0.913147 1.11321 0.988848 1.37003 1.2345 0.896216 1.34101 1.42419 1.31151 1.209 1.1084 1.16797 1.23169 1.30021 1.43921 1.29463 0.982383 1.11829 1.02802 0.980611 0.951807 1.16721 1.09875 1.00642 1.08638 1.25731 1.05645 1.18983 1.22084 1.05407 1.16274 1.00916 1.27717 0.890882 1.09929 1.05057 1.39829 1.26424 1.29661 1.03312 1.09156 1.3699 1.25286 0.901899 0.803633 1.32735 1.07516 1.24986 0.941433 1.06171 1.15606 1.29656 1.24763 0.818158 1.04766 0.950338 0.814085 0.883178 0.813005 1.15979 1.39641 0.927145 1.03493 1.02936 1.11205 1.00652 0.98608 0.924496 1.19576 1.18496 1.43061 1.34562 0.892334 1.21736 1.09068 0.835667 1.0083 1.43202 1.43973 1.47035 1.16223 1.20163 1.46037 1.10979 1.09538 0.800961 0.818335 1.47901 1.37645 1.26999 1.15532 0.951743 1.00527 1.08089 1.03974 1.00873 1.02415 0.922436 1.04931 0.831657 1.04328 1.05275 1.03906 1.4029 0.950256 1.06869 0.954609 1.27941 0.856382 0.900056 1.03844 0.847299 0.905416 0.867111 1.35405 1.27037 0.881529 0.822372 1.01919 1.47916 1.09519 0.954152 1.43899 1.38933 1.19947 1.11088 1.1505 1.0811 0.891887 1.18947 1.27804 1.45244 0.854859 1.03507 1.19935 1.41393 0.937481 1.44021 1.42608 1.11565 1.02206 1.03384 1.46536 1.21532 1.29734 
1.0796 0.994168 0.894379 1.03772 1.47785 1.29956 1.4142 1.47101 1.45577 1.46419 1.14293 1.19932 1.23803 1.00819 0.929705 1.43445 1.23469 1.46956 1.44325 0.850116 0.923815 0.860434 1.03452 1.02829 1.47544 0.983266 0.960114 0.826609 0.824834 1.27935 0.986189 0.859682 0.998876 0.870191 0.840591 1.45019 1.04953 1.21551 0.982568 1.21057 0.962569 1.12188 0.92844 1.10119 1.14666 1.46458 1.31506 0.880373 1.42451 1.21307 1.18883 0.806748 1.43263 1.13166 1.30088 1.24556 1.35471 1.34825 1.20075 1.23474 1.22419 0.999921 1.22686 1.17599 0.821593 1.4831 1.08757 1.36179 0.898314 1.08086 1.21523 1.48232 0.850473 1.09243 0.973976 1.12804 1.23057 0.949584 1.2531 1.11703 1.18044 1.42865 1.21035 1.43442 0.97401 0.938355 1.43002 1.06549 1.24227 0.97131 1.20122 0.993677 1.14418 0.808738 1.14851 1.19403 0.975515 0.994912 1.12609 1.25225 1.24079 0.927715 0.962434 1.00034 1.41555 1.2701 1.0219 0.899729 0.915173 1.09557 0.908792 1.08575 0.980991 0.826299 0.90155 1.23295 1.14827 1.10853 0.967283 1.0332 0.934184 1.08632 1.25346 0.811488 1.2966 1.18309 0.82879 1.06682 1.38729 1.13758 1.12304 1.22413 1.44241 1.27137 1.42037 1.4988 1.38107 1.29486 1.02939 1.23243 1.27282 0.933634 0.907833 0.984002 1.09919 0.909837 0.852063 0.889071 1.33491 0.947361 1.49369 1.05351 1.08023 0.979187 1.34821 1.14085 0.859149 0.935164 1.10699 0.894122 0.904926 1.07869 1.14701 1.26512 1.36804 1.41365 0.907888 1.18568 1.22101 1.16621 1.26602 0.852601 1.00902 1.082 0.825369 1.00263 1.42025 0.887035 1.18141 0.880249 0.865078 1.48334 0.856894 1.30213 1.38587 1.17008 1.35752 1.33863 1.16319 1.4412 0.891642 0.880123 1.4288 0.881294 1.49397 1.38677 1.46444 1.09914 1.21374 1.38734 
1.05713 1.08004 1.08579 0.969274 1.42035 1.32178 1.26739 1.01821 1.46943 1.31482 1.39123 1.16303 1.44588 1.19457 1.30128 1.18257 1.2792 1.34854 0.876933 0.846753 0.926022 1.4629 1.44205 0.947552 1.12212 1.1282 1.28955 1.36675 1.0319 1.28701 1.02069 1.29476 1.08132 0.991842 1.39366 1.28263 0.981875 1.26442 1.3293 1.34497 0.892055 1.25574 1.39983 1.17749 1.199 1.04992 1.26097 1.18089 0.974113 1.18911 1.40053 1.43452 1.29097 1.24444 1.42466 1.28748 0.801104 1.10567 0.887695 1.09955 1.05072 1.00653 1.28068 1.09391 1.25709 1.00839 0.970385 0.901614 0.955812 0.873247 1.45642 1.22579 1.02601 1.18766 1.1315 1.49438 1.29495 1.42698 1.44144 1.30769 0.822512 1.44293 1.29928 0.858615 0.998743 0.920946 1.18403 1.33724 0.92612 1.02711 0.878486 1.45414 0.933691 1.159 0.84988 0.871745 1.26534 1.14113 1.12174 1.02066 0.996482 1.46924 0.933688 1.37334 1.35895 1.00474 1.28045 1.19286 1.49816 0.879329 0.934683 1.15364 0.833653 1.39239 1.25536 0.817855 1.44466 1.06829 1.31831 1.31324 1.05846 1.30969 1.31308 1.19924 1.42637 0.861924 0.922013 1.27236 1.31748 1.21928 1.14357 1.08137 1.15928 0.89633 1.41517 1.12301 1.46032 1.30233 1.03355 1.01371 1.46464 0.848202 0.81603 0.878588 1.13485 0.871518 1.44289 0.834298 1.15486 1.32417 1.05331 1.24246 1.37716 0.90992 0.829477 1.36865 1.32606 1.19607 0.925442 1.43521 1.10393 0.877565 1.276 1.16886 1.18258 1.46862 0.975068 1.43982 0.947263 1.48572 1.19932 1.31306 1.20477 1.34458 1.12439 1.334 0.919843 1.18063 1.31172 1.38793 0.9918 1.14676 0.827317 1.48808 1.26455 1.09051 1.11287 1.12098 1.09213 1.33928 1.33446 1.4784 0.892222 0.833969 1.32347 1.38116 1.1304 1.46476 1.47309 1.41812 
0.857515 1.45237 1.42891 1.10498 1.47679 0.836266 1.38056 1.25957 1.28688 1.30923 1.26678 1.09494 0.920738 1.39832 1.04875 0.98924 1.32389 1.0379 1.38396 1.03199 1.26855 1.07273 1.05144 0.969784 0.81844 0.881914 0.93519 1.47362 0.941544 1.32261 1.10443 1.4426 0.999075 0.877398 0.856524 1.06508 1.3655 1.16442 1.43589 1.48504 1.40183 1.19147 0.875894 1.09644 1.16319 1.30758 0.995542 1.29182 1.24435 1.05159 1.42794 0.940581 1.49023 1.05806 1.41785 1.18898 1.21709 1.19201 1.33295 1.26353 1.47819 1.27287 1.44161 1.05743 1.39887 1.40642 1.35772 1.16934 1.14691 1.16121 1.04077 0.903051 1.18923 0.918966 1.06131 1.20013 0.966927 0.986693 1.21927 1.41991 0.838215 1.31341 1.01599 0.844426 1.23586 1.26689 0.954018 0.887555 0.839948 1.44576 0.926801 1.04554 1.36711 1.14615 1.11119 1.15091 1.2908 1.02598 0.812865 1.1472 0.835879 0.991784 1.18153 1.24728 1.13484 1.23922 0.965486 1.22542 1.43883 0.890161 1.40951 0.917806 0.986196 1.20828 1.27252 1.1212 1.16215 0.963988 0.828794 1.04501 1.22844 1.40871 0.991814 1.4868 1.24914 0.815619 0.830681 1.23987 1.49334 1.48227 1.17849 1.42069 1.02299 1.1968 1.07603 1.34119 1.34241 1.01688 1.49607 1.14198 1.27758 1.08841 1.03945 0.815653 1.07274 1.13667 0.852017 0.867098 1.42277 0.903498 1.09993 1.08613 1.2763 1.09802 1.44112 1.05037 1.10532 1.46456 0.903244 1.05082 1.25428 1.40461 1.29869 1.32901 1.07576 0.917994 1.10925 1.31528 1.08904 1.07594 0.874142 0.847103 0.921387 1.37978 1.42094 1.36473 0.97844 0.822723 0.878596 1.40504 1.4531 1.20671 1.05683 1.11499 1.3002 0.876055 0.860424 1.24382 1.07253 1.04093 1.43452 0.842064 0.898545 1.06318 1.08531 1.48104 1.35034 1.32764 1.00093 1.1281 
1.32135 0.872066 1.35122 0.834613 1.41769 0.967694 0.965433 1.16407 1.22359 1.32862 1.35546 0.896354 1.09286 1.03567 1.32407 1.08994 1.39363 0.957893 0.881933 0.956696 1.13969 1.40414 0.997314 1.3332 1.35174 0.870548 1.09143 0.809522 0.909771 0.811343 1.30254 0.815926 1.32394 0.808557 1.18208 1.1429 1.07106 1.20702 1.22601 1.25767 1.00734 1.45455 1.14904 0.877617 0.95915 1.30344 1.38881 1.29894 1.06821 1.37717 1.33196 1.28192 1.29864 1.173 0.80235 1.04255 0.888216 1.02801 1.07529 1.04341 1.10817 1.17721 1.36308 1.26271 1.08652 1.32617 1.41001 1.46062 1.11552 0.997138 1.17117 1.44697 0.952036 1.07657 1.4138 1.13678 1.02397 0.898723 0.952007 0.955222 1.46128 0.874263 1.02455 1.12324 1.40284 1.10167 1.3253 1.39315 1.49577 0.954826 1.26218 0.845554 1.13518 1.2447 1.00403 1.33606 1.19823 0.856167 1.08404 0.961313 0.875128 1.08505 0.817545 1.4579 1.07261 0.841326 1.10281 1.27243 1.23435 1.47928 1.09724 1.38051 1.04244 1.25476 0.965339 1.20468 1.22043 1.11853 0.928948 1.44479 1.0514 1.16024 1.40588 1.21717 1.30272 1.1311 1.07627 1.29692 0.892801 1.28024 1.41471 1.24837 1.15577 1.23333 0.830243 1.38719 1.00551 1.38418 1.05901 1.1909 1.17105 1.04196 1.23347 0.93757 1.07993 1.01072 1.26848 1.46722 0.908064 0.986768 1.32497 1.31883 1.44221 1.13704 1.04793 0.954438 0.959547 1.14274 1.02055 0.942962 1.10934 1.05534 1.30991 1.20107 1.08156 1.41603 0.880887 0.821204 0.889161 1.35894 1.0563 1.25623 1.14429 1.09466 1.27687 1.28327 1.16012 0.923156 1.46996 1.37887 0.992345 1.34866 1.44763 1.33299 1.30897 1.34502 1.01377 0.926357 0.974825 1.26203 1.08546 0.969561 1.39654 0.800815 1.43666 1.31568 0.877001 1.14171 1.38743 1.29159 
1.13039 1.01298 1.4857 0.828294 1.17417 1.31803 1.15489 0.988413 1.39378 1.18638 1.31043 1.28211 1.16121 1.28757 1.488 0.970624 1.41301 1.1886 0.807838 1.12435 0.928471 1.23019 0.851197 0.9286 1.48858 1.20702 1.20983 1.19387 1.37727 1.05199 1.38853 1.35137 1.38227 1.22666 1.37506 0.851317 1.11194 0.876777 1.38028 1.47294 1.32625 1.14864 1.40543 0.861431 0.906196 1.07231 1.10804 1.09089 1.22526 1.48758 1.17679 1.24179 1.39575 0.892422 1.24587 1.45708 1.18724 1.31542 0.973849 1.09789 1.02243 1.42357 0.905834 0.800219 1.44349 0.854518 1.11271 1.17526 1.3641 0.997529 1.06406 1.28419 1.22812 1.02479 1.16575 1.49521 0.961191 1.46537 1.31192 1.22534 1.28166 0.992509 1.47767 1.40317 1.37188 1.04611 1.33979 1.48393 1.28241 1.07553 0.86412 0.819544 0.831762 0.872158 1.28065 1.16958 0.822876 0.99631 0.930969 1.04294 1.28762 0.832784 1.05798 1.37362 1.24006 1.26653 0.990998 1.22911 0.820299 0.913838 1.05981 1.39075 1.03523 0.845429 1.11379 1.22124 1.20167 1.10526 1.27403 1.07603 1.07068 1.02415 0.985385 1.03963 0.826676 0.918118 1.48722 1.11492 1.37912 1.47607 1.33649 0.852748 1.0278 1.39649 1.36619 1.05073 1.2346 0.87225 1.2119 1.47269 0.973755 0.852532 1.38758 0.861789 0.973826 0.938917 1.41339 0.997998 1.05162 1.2097 1.3165 1.25304 1.06297 1.20194 1.00873 1.18625 1.48633 1.46673 1.24988 0.830061 1.28099 0.879641 0.976325 1.0955 1.34123 1.18274 1.3894 0.879521 1.159 1.36226 0.87509 1.41046 0.845994 1.07449 0.819445 1.17031 1.31659 0.994986 0.803419 0.830326 1.17744 0.931621 0.80737 1.41015 1.27464 0.900043 1.10805 1.49889 0.988404 0.937144 1.14055 1.26925 1.00962 0.933023 1.09646 1.01401 1.33484 1.18738 1.24659 1.34395 
1.36346 1.43945 0.868708 0.922836 1.10609 1.15017 1.36216 1.42727 1.23755 1.35919 1.46581 1.04431 1.29892 1.12368 1.28904 1.49404 0.969467 0.90871 1.31689 1.48318 1.20361 0.981702 1.31143 1.25621 1.25479 1.06936 1.21679 0.832616 1.27111 1.27684 0.991681 1.1117 1.15773 1.34338 1.07953 1.20202 0.871928 1.17238 1.48243 1.41709 0.954697 1.33268 1.05301 1.47389 0.877658 1.13405 1.0835 1.10804 1.28469 0.848956 1.45063 1.33655 0.881001 1.2429 1.49743 1.41477 1.33995 1.12536 0.825823 1.23951 0.856014 1.1274 1.33862 1.38004 0.902279 0.956357 1.4797 1.30597 1.29269 1.13096 1.13764 1.22413 1.27968 1.4312 1.36073 0.905619 1.27604 1.32543 0.911484 1.16959 1.03357 0.927384 1.30827 1.12676 1.10497 1.31175 0.914821 0.853618 1.37397 1.0565 1.32593 1.17335 0.841363 0.960816 1.16629 0.845292 1.02523 0.820434 0.944182 1.12918 0.807707 1.41435 1.35447 1.33537 1.32507 1.26311 1.10115 1.23762 1.46786 0.827177 1.17873 1.49985 1.41457 0.93026 0.81949 0.822774 1.42986 1.13318 1.23265 0.906611 0.937261 0.870909 1.02589 1.24952 1.16037 1.32136 1.00212 0.875121 1.35172 1.464 1.11936 1.34503 0.958749 1.38579 1.49198 0.874703 1.41052 1.22822 1.44516 1.41325 1.47691 0.993926 0.91898 1.39711 1.06722 1.15103 1.28332 1.01349 0.932242 0.872732 0.899356 1.43573 1.34402 0.885762 0.85076 1.3836 0.87528 1.03223 1.34428 1.24034 1.12265 1.17456 1.33524 1.10043 1.36391 1.36052 1.10242 1.15937 1.22896 1.41209 1.16353 1.29114 1.38854 1.32191 1.18198 1.44589 0.987426 1.02781 1.17492 0.934291 1.13381 1.17104 1.09137 0.985234 1.38754 1.4433 1.21197 1.13146 1.20237 1.22578 1.07916 0.854283 0.891255 1.34147 0.997098 0.862486 0.812078 0.980308 0.834219 1.00348 
1.13836 1.12607 1.37767 1.08635 1.42388 1.2458 1.0049 0.976744 0.949849 0.953927 0.900605 0.988541 1.25648 1.09951 1.16919 1.39309 1.29819 1.17019 0.898325 1.01583 0.805617 1.36539 0.899214 0.86324 1.47987 1.28103 1.12202 0.96632 0.868438 1.48757 1.31492 0.933357 0.802442 1.46927 0.95135 1.24931 1.38603 1.03142 0.847772 1.4795 0.94713 1.38025 1.08617 0.930296 1.04911 1.10685 1.37747 0.925564 0.939987 1.14164 1.19351 1.08249 1.01528 1.4931 1.29862 1.26162 1.0916 1.26286 1.40156 1.34996 0.87532 1.27077 1.31518 0.840127 1.09388 0.942427 1.2604 1.33245 1.26635 1.04377 1.38835 1.35287 0.984901 1.33196 1.38603 1.10657 1.17356 1.01018 0.828171 1.11539 1.21216 0.998103 1.47698 0.87954 0.821389 0.969521 1.35706 1.39809 1.00144 0.987565 1.07213 1.47225 0.823394 0.822434 1.47646 1.19633 1.12714 1.34686 1.01651 1.40127 1.0287 1.15201 1.16425 1.35385 0.921643 0.822274 0.818087 1.07324 1.29384 1.11226 1.21141 1.33533 0.941607 0.941108 0.883792 0.847473 1.36621 1.37445 0.831214 1.14399 1.10325 0.960152 1.42908 0.819053 1.09252 1.11505 1.25803 1.16199 0.967735 1.42969 0.866135 1.30405 0.801019 1.20948 1.19693 0.957609 0.916038 0.980497 1.33918 0.820599 1.08212 1.43816 0.800678 1.00886 1.18439 1.10383 1.32306 0.868263 1.13587 1.31639 0.978661 1.29278 1.07279 1.46242 1.42543 0.896241 1.31824 0.838808 0.97442 0.928872 1.45721 1.29707 0.869621 1.29799 1.16827 0.858873 0.820767 1.23525 1.25534 0.844168 1.05579 1.28507 1.15725 1.25766 1.01969 0.904968 1.29351 1.2555 1.48957 1.43977 1.39618 0.987192 1.01974 1.26242 1.29055 0.855674 1.2437 1.48247 1.29864 1.02406 1.37219 1.46272 0.828633 0.924273 1.02441 1.25987 0.990698 1.33026 1.14888 0.938754 
1.35861 1.19313 0.854728 1.35769 1.35472 1.48471 1.44202 1.49846 1.46574 1.19316 1.20957 1.36287 0.927423 0.994088 1.33181 1.29944 1.13481 1.35603 0.822811 1.43761 1.09649 1.02502 0.871958 1.2328 1.43582 0.954817 0.986875 1.2116 1.18487 1.07972 1.34748 1.1004 1.06711 1.40758 0.911491 1.1941 1.26348 1.47183 1.48311 0.989855 0.952396 0.825961 1.42253 1.11618 0.878201 0.820776 0.866642 0.813228 1.03672 0.839563 1.07344 0.994403 1.41052 0.961307 1.1403 1.2941 1.27943 1.46641 0.915837 1.31549 1.16749 0.886939 1.4301 1.25282 1.31557 1.03854 0.90688 0.933538 1.29263 1.02765 1.41364 1.00458 1.45473 1.21021 1.28855 1.03646 1.34504 1.22847 1.13444 1.39634 1.2418 1.48313 0.89978 0.9868 1.36395 1.34164 1.39974 0.919194 1.19783 1.02086 1.13674 0.832779 1.03513 1.07813 1.04471 0.833617 1.32265 0.951912 1.01037 1.37875 1.39179 0.910581 0.823586 1.02378 1.34858 0.988159 1.13377 0.989872 1.23858 1.17006 1.08542 0.928759 0.877935 1.33358 0.936048 1.04341 1.03814 1.09022 1.45423 1.47394 1.3554 0.832518 0.933845 1.24535 1.12702 1.06714 1.47829 1.12606 1.42004 1.17603 1.00863 0.891615 0.943287 0.961805 0.992914 1.20594 0.887763 1.07549 0.80035 1.06833 1.41505 1.2865 1.45677 0.849895 1.06759 1.08218 1.43796 0.925862 1.24486 1.27383 1.01565 1.11796 0.854129 1.45281 1.33637 0.873664 1.08916 1.1456 1.37607 1.33899 1.35971 1.19267 1.1363 1.25919 0.864316 1.4252 1.0314 1.0174 0.954469 1.28163 0.99761 1.40179 1.24094 1.46759 1.26526 1.12828 1.10584 0.932228 1.27558 0.933156 1.06891 1.29813 1.32621 1.15904 1.16546 1.49186 0.817602 0.999093 0.890052 1.45806 1.15604 1.30118 0.987333 1.05959 1.31178 1.04598 0.991397 1.01296 0.975403 1.41048 
1.4579 0.857262 1.16472 1.2145 1.37813 1.26944 1.19657 1.27954 0.916786 1.0936 0.946465 1.48925 1.18784 0.992611 1.02887 1.37725 0.914406 1.09677 1.12185 1.40009 1.17938 0.885066 1.00239 1.49399 1.44478 1.38662 1.19825 1.29118 1.04827 1.10247 0.903448 1.23626 1.0208 1.41505 0.834891 1.13895 1.47238 1.24227 1.28795 1.15466 1.201 0.90992 1.31409 0.979903 1.43381 0.966468 1.15799 0.846832 1.01302 1.0566 1.43387 0.928775 1.22868 1.11029 0.915937 1.11926 1.23756 1.42978 1.02837 0.914342 0.839156 0.963605 0.976252 1.37749 0.826485 1.01494 1.22049 1.07228 0.857029 0.941354 1.24355 1.49811 0.831147 1.22122 1.22324 0.965525 1.41047 0.890086 1.47681 0.865711 0.946969 1.1153 0.929121 0.978175 1.00462 0.975823 1.18799 1.25277 1.22845 1.36443 0.950464 1.06267 0.824916 1.03463 1.10658 0.909767 0.833659 1.43173 1.25273 0.976585 1.40249 1.01616 0.812272 1.0581 1.07549 1.41363 0.988607 0.992205 1.04619 0.903332 1.16944 0.857515 1.11502 0.91207 1.10943 0.853254 0.856334 1.22725 1.0512 1.06556 1.37318 1.04016 0.908179 0.841147 0.867138 1.28453 0.907474 1.19773 0.977228 1.31869 1.23402 0.839799 1.43946 0.809067 0.820677 0.870182 0.969427 1.15057 1.21825 0.988727 1.05268 1.15527 1.13422 1.02197 0.83384 1.21516 1.32041 1.04982 1.47233 1.18562 1.22247 1.07846 1.43666 1.11867 1.01229 0.963449 0.827444 0.953678 1.36357 0.952937 0.866783 1.03878 1.42792 1.07072 1.05624 1.04613 1.10511 1.28143 1.28789 1.14252 1.01821 1.40858 1.4159 1.41029 1.50001 1.00443 0.922185 1.2606 1.42702 1.16418 0.90768 1.14308 0.803398 0.991047 0.889842 0.985749 1.23799 1.26746 1.28502 1.36126 1.36593 1.02054 1.3829 1.21195 0.961211 0.827534 1.456 0.958726 1.12498 1.00399 
1.29713 0.858443 1.0029 1.39967 1.1371 0.867617 0.868834 1.29414 1.46785 0.976328 1.35584 1.31538 0.939636 1.44546 1.27375 0.99687 1.41209 1.20112 0.946329 1.17696 1.25317 0.988917 1.02697 1.27987 0.876886 1.28057 1.18101 0.987723 1.09415 1.21324 1.01582 1.46327 0.942647 0.897683 1.13139 1.11738 0.947991 1.12852 1.24858 0.978287 0.81264 1.25609 1.35445 0.986791 1.41962 1.047 0.899182 1.453 1.08885 1.0593 1.27153 1.42948 1.1503 1.35475 1.27486 1.0292 1.43828 0.921529 0.842591 1.41223 1.2778 0.810821 1.45081 1.06577 1.33691 1.25541 1.07083 1.12037 0.949904 1.46788 1.39308 0.945197 1.06909 1.16347 1.12091 0.929959 0.816388 0.918222 1.09403 1.11998 1.49317 0.890776 0.958835 1.47005 1.19524 1.21784 1.33734 1.18318 0.939436 1.18652 1.42228 1.48016 1.18473 1.36405 1.1833 1.4326 1.4661 1.31821 1.40148 1.14566 0.821781 1.32665 1.17091 1.28832 0.841778 1.32588 1.39017 0.876715 0.90944 0.937424 1.34486 1.46903 1.08694 1.04045 0.90538 0.961897 1.22703 1.41792 1.19793 1.01646 0.856069 1.36847 1.02862 1.06987 0.905385 0.867732 1.11636 1.16631 1.34579 0.971752 1.37433 0.815499 1.45788 1.02816 1.39299 0.804112 0.852891 1.04025 1.18718 1.33728 1.39253 1.36075 1.24686 1.35536 1.39735 1.00795 1.3253 1.24891 1.40461 0.864433 0.99679 1.19591 1.40115 1.17129 1.32494 1.45679 1.36114 1.03633 1.10201 1.05128 1.3084 0.909577 0.996053 1.34939 1.27677 1.25025 1.29768 1.10124 1.32794 0.852487 1.39731 0.885757 1.41601 1.25235 1.2683 1.07162 1.23294 1.15185 0.829997 1.32669 0.842373 1.25428 1.01826 1.46386 0.861765 1.35321 0.997036 0.960017 0.851829 1.24176 1.43408 1.39515 1.10265 1.34533 1.20918 1.10911 0.842694 1.20159 0.897322 0.904344 
0.947501 1.0024 0.985014 0.851219 1.15726 1.34416 0.93501 1.39445 1.49073 1.07081 1.43004 1.39393 0.828341 1.16029 0.949242 0.903378 1.40188 1.08805 1.01975 0.916794 1.36995 1.23139 1.18357 1.28027 1.27 1.08892 0.807988 0.882349 1.10484 1.35615 0.897844 0.81958 1.05701 1.40206 0.936906 1.20723 0.860007 1.42192 1.16735 0.836119 1.42198 1.22601 0.928475 1.21042 0.912237 1.19191 0.999198 1.11529 1.08574 1.40559 0.961911 1.03967 0.974084 1.35463 0.939287 1.00414 1.07321 1.32493 1.21849 1.3725 1.42564 1.23309 0.946965 1.29801 1.21114 1.05813 1.04731 1.49642 1.04498 1.19908 0.805602 0.832205 0.989371 1.07301 1.11443 1.46851 1.09511 0.88548 0.972951 1.03484 1.38522 1.16919 0.912047 1.1079 1.32087 0.834261 0.920997 1.35416 1.37513 1.0064 1.2987 0.879297 1.13623 0.919636 1.29634 1.0763 1.15608 1.20677 1.40092 1.13693 1.20579 1.4744 1.4258 0.952866 1.29105 1.13119 1.20507 0.807593 1.40546 0.963366 1.34641 0.949486 1.28032 1.33418 1.48954 0.96626 1.1029 1.49842 1.09553 1.00339 1.25197 0.927234 1.28457 1.11738 1.15147 0.918924 1.21877 1.24079 0.93842 0.997372 0.804099 1.40905 1.2259 1.03759 1.08877 0.826473 1.27497 0.844703 0.83518 1.02984 0.895979 1.31686 1.48123 1.18695 1.04445 1.46979 1.33803 0.8071 0.90296 0.94475 1.22435 1.14154 1.35718 1.07027 0.821232 0.840872 1.27462 0.964928 1.13138 1.05387 1.34046 0.891034 1.11437 0.838166 1.26547 0.95491 1.13545 0.957682 1.25555 1.16454 0.930341 1.44747 1.26231 1.19042 0.807363 1.10879 1.0621 1.44401 1.34158 1.16675 1.47986 1.15141 0.862882 1.46079 1.32508 1.13889 1.07734 1.36894 1.13815 0.938035 1.44411 1.18112 1.28898 1.18573 1.15573 0.84364 1.4948 1.31995 1.37581 1.03638 
1.44036 0.929032 1.12509 0.90182 1.07201 1.07386 1.42534 1.26891 0.96588 0.903362 1.09004 1.25436 1.08222 1.4572 1.18174 1.31204 1.06139 1.28766 1.23916 1.02754 1.29569 1.23128 1.41712 1.14879 1.12799 1.08286 1.01012 1.21808 1.39223 1.33775 1.02051 1.37214 1.25952 1.00334 1.0339 1.18028 1.05561 1.14758 1.47611 0.939756 1.44651 1.49475 1.43744 0.936107 1.39525 1.45694 1.03023 1.32697 1.01436 0.977909 1.16786 0.964808 1.45179 1.2453 0.911691 0.97353 0.872346 1.27192 0.979749 1.17201 1.14276 1.08979 1.2641 0.855977 1.13489 1.1349 1.00636 0.925726 0.897907 1.32486 0.884128 1.22433 1.0824 1.02957 1.0589 1.4036 1.09738 1.1453 1.07819 1.4364 1.06987 1.38685 1.46284 1.28082 0.849151 1.10558 1.03094 1.23893 1.20735 1.05607 1.09229 1.14901 0.992246 1.44613 0.839564 1.16314 1.07549 1.37971 1.37844 1.3852 0.853097 0.930416 1.01028 0.913012 1.01804 1.45395 1.24616 1.02425 0.997442 1.13661 1.02088 0.913081 1.34646 1.44545 0.815773 0.999315 1.41238 1.2766 0.843441 1.49309 1.43378 1.1381 1.20313 1.24295 1.19556 0.828129 1.30471 0.830428 1.36374 1.44977 1.25636 1.44988 1.34538 1.03424 1.04609 0.834761 1.41831 1.26893 0.970523 0.808749 0.855927 1.17338 0.809719 1.13261 1.37373 1.46608 1.38638 0.954056 1.10634 1.36954 1.29239 1.31912 1.14318 1.25858 1.21392 0.836422 0.924837 1.13606 0.981587 1.2478 1.02405 1.31575 1.3881 1.18099 0.953207 1.32129 1.41835 1.31181 1.12081 0.847994 1.16092 1.43669 0.958734 1.47585 1.08879 1.38335 1.24384 0.882318 1.39501 1.26082 1.37701 0.822426 1.31684 1.11562 1.41845 0.855356 1.44363 0.837539 0.928746 0.989408 1.22662 1.22865 1.24162 1.04558 1.30306 1.20573 1.02484 1.42725 1.39519 1.3241 
0.990862 1.18438 1.29878 0.942098 0.869328 1.32018 1.4067 0.808955 1.23027 0.85437 1.48875 1.1209 0.917279 0.804472 1.43484 1.19944 0.977604 0.904603 0.826765 1.12512 1.21147 1.20747 0.896177 1.18016 1.05509 1.28965 1.40607 0.968441 1.17099 1.09729 0.854144 1.14615 1.40353 1.03101 1.09122 1.32465 1.15709 1.23989 0.961573 0.801272 1.42882 1.17187 1.48508 0.993726 0.996807 1.08987 1.36046 0.868697 1.15778 1.45309 1.29625 1.10036 1.02923 1.1193 0.967051 1.32336 0.828139 1.16531 1.27097 0.836852 1.48056 0.944541 0.975753 1.05632 1.44888 0.847879 1.36162 1.44079 1.46451 1.31107 0.802374 1.24793 1.10433 0.88467 0.981938 1.0699 1.28657 1.12923 1.38072 1.25377 1.21659 1.4517 1.11323 1.01647 1.02261 0.923731 1.29223 1.2096 1.21907 1.47638 1.34219 1.39452 1.26726 1.0071 0.935538 0.896035 0.932781 1.38075 1.49644 1.25818 0.827247 0.928737 1.45056 1.43527 0.852071 1.45909 0.958972 0.990337 0.929998 1.03724 0.899209 1.49861 1.37554 0.942193 0.81429 1.28253 0.836691 1.20531 1.03597 1.32438 1.15247 0.961566 1.47776 1.09979 1.2207 0.933662 1.15956 1.36956 1.1312 1.18878 1.3909 0.886277 1.06836 1.02635 1.49803 1.27728 0.895743 0.897676 1.06721 1.2769 0.949798 1.48349 1.40093 1.07003 0.842478 1.45466 1.36331 1.19105 1.128 1.42066 1.20387 1.18203 1.01042 0.991442 1.40275 1.08697 1.18775 1.02165 0.896267 1.05033 1.2746 1.17732 1.19552 1.3104 1.33014 0.915636 0.967994 1.46362 1.18454 0.858515 1.47104 1.26144 1.41952 1.21878 0.872077 1.23529 0.822832 1.4163 1.05788 1.15205 0.88072 1.0918 0.894784 0.923956 1.11897 1.20413 1.07049 0.896244 1.3501 0.913692 1.0802 0.970243 1.48983 1.09993 0.941766 1.38114 1.32126 1.25801 1.19118 0.805778 
0.832999 0.992488 1.1447 1.29727 1.41828 1.15421 1.12577 1.0277 1.3919 1.29247 1.47849 1.182 1.38214 1.05112 0.911743 0.901063 1.13074 0.903847 1.43111 1.45171 0.920672 1.0704 1.44101 1.32212 0.922886 1.14494 1.33992 1.0198 0.865057 1.30136 1.45092 0.948876 0.848511 1.38899 1.31567 1.48344 1.08371 1.18517 1.12619 1.34972 0.893936 1.34537 1.24539 1.47186 1.43147 1.05268 1.1981 1.12097 1.15642 1.09904 0.979338 1.28508 1.17541 0.994961 1.45799 1.1583 1.21797 0.966258 1.15625 1.00158 1.19493 0.871464 1.25917 0.993586 1.18317 1.09815 1.3267 1.25874 0.944911 0.975989 1.43906 1.06639 1.3949 1.48532 1.30614 1.28541 1.00019 1.18787 1.31841 0.87206 1.40739 0.998904 1.3134 1.1906 1.16834 1.44635 1.041 1.3173 1.48535 1.22407 0.856999 1.16224 0.828313 1.169 0.832645 1.32424 1.13597 0.858595 0.823431 1.45744 1.19362 1.4747 1.42412 0.90179 1.39313 1.21474 1.42894 1.17236 1.12791 1.05479 1.4403 1.4283 0.973233 1.03822 1.44049 1.19728 1.24959 1.31422 1.37394 1.47057 1.356 1.16524 1.34633 0.966425 1.31245 0.819092 1.09604 0.85699 1.11783 0.814212 1.02122 1.24861 1.30965 1.291 0.883618 1.15051 1.48557 1.47732 1.29141 0.910578 1.25491 1.18754 1.164 1.43237 1.01457 1.21426 1.26468 0.907776 0.905819 1.00578 1.06912 0.922373 1.26998 1.2418 1.4401 1.22446 0.912238 1.07062 1.17954 1.08682 1.13491 1.05686 1.09959 1.32344 0.860841 1.35298 0.854217 1.4004 0.969287 0.860674 1.3422 1.1938 1.19449 1.25423 1.28369 1.32234 0.991881 0.818434 1.48039 1.43856 1.2907 1.00632 1.04004 0.807705 1.26739 0.943651 0.853292 1.095 1.36906 0.970618 0.82869 1.32035 1.36617 0.849291 0.914688 1.05049 1.38689 0.943949 0.858546 1.19404 
1.26445 1.01419 1.4019 1.41282 0.84826 1.03983 0.964398 1.07818 0.873282 1.09577 1.01257 1.01961 1.08328 0.890764 1.38711 1.43045 1.16277 0.870809 1.48984 1.28516 0.926179 0.987955 1.06697 0.850014 1.25826 0.802823 1.35116 1.22361 0.802349 1.296 1.29877 0.858896 1.15575 0.875917 0.933917 0.888734 1.44973 1.28733 1.16357 1.00975 1.37041 1.29048 0.82598 0.822565 1.26772 1.05368 1.14499 1.1617 1.2579 1.20149 0.826928 1.08268 1.0858 0.89665 1.04737 0.923085 1.4626 1.08993 1.09405 1.06302 1.41479 1.06967 1.12216 1.21849 0.899034 1.04174 0.876857 1.3248 1.34189 0.915751 0.912257 1.30953 1.03129 0.909438 1.28963 0.901631 1.36127 1.38974 0.961718 1.49318 1.1864 1.16238 1.02047 1.02508 0.856832 1.49157 0.868579 1.29101 1.31503 0.893781 1.15129 0.814114 1.39005 0.853253 1.32953 0.802126 1.30529 1.46113 1.48457 1.20484 1.29119 1.16195 1.11298 1.12389 1.49654 1.26459 1.07603 1.39141 0.891562 1.31179 1.2083 1.04656 0.975557 1.31093 0.884037 0.981778 1.4981 1.22728 1.29068 1.37171 1.20565 1.30021 1.46691 1.26982 0.927886 1.15624 1.12538 1.23682 1.34255 1.47904 1.17074 1.0357 1.45125 0.941285 1.37875 1.08502 1.25359 1.27445 1.06913 0.863309 1.07393 0.854389 0.943194 1.15068 1.15564 1.41111 1.07597 1.33743 1.27994 1.41616 1.2553 1.48985 1.30888 1.13182 1.05385 0.803383 1.2023 1.09176 1.19863 1.00261 1.22576 0.837401 1.27361 1.16516 1.07441 0.905113 1.40262 1.36815 1.27834 1.22251 1.04481 0.914323 1.4799 1.45571 1.3616 0.925622 1.35429 0.802184 1.16286 1.2542 1.24166 1.16893 1.15843 1.27929 1.04871 1.32096 0.82151 1.18803 0.864653 1.06603 1.03453 1.27074 0.971176 1.09334 0.930925 0.974923 1.03379 0.951398 0.997747 1.06018 
1.2101 1.35335 0.934377 0.905434 1.07617 1.22263 0.83064 1.01772 1.12688 1.147 1.25728 0.807581 1.46453 1.30929 0.81043 1.32951 1.29112 1.40612 1.35796 0.936023 1.30058 1.45669 1.30354 1.01187 0.80556 1.04715 1.1329 1.26062 1.16024 1.48423 0.874966 1.01108 0.936688 0.903509 1.33227 1.41529 0.813309 0.827482 1.11436 1.17151 1.45698 0.978415 1.37584 1.3343 1.49013 1.36734 1.36522 0.855887 1.1852 1.15217 1.02791 1.30383 1.47918 0.960856 1.0779 1.33585 0.954025 1.41656 0.893892 0.829836 1.17033 1.4496 1.31692 1.001 0.877289 1.14511 1.31603 1.28026 1.04745 1.22465 1.4451 1.04657 0.885684 1.01981 0.951272 1.31488 0.848682 1.38237 0.991644 0.905112 1.15839 0.954322 1.21816 1.23191 1.17931 1.32828 0.879011 1.28825 1.14284 0.97311 1.01156 1.45738 0.846575 0.863615 0.925617 0.85832 1.41253 1.38721 1.30129 0.817862 1.44253 0.828371 1.05786 0.895228 0.965934 1.06202 0.831138 0.910569 0.832213 1.2572 1.2257 1.33574 1.34959 1.09928 1.1358 1.27386 1.14817 0.882712 1.17671 1.44636 1.36581 1.19673 0.822275 0.983739 1.16704 1.25242 1.12092 1.06436 0.997434 1.09964 1.32693 1.42446 0.840798 1.38287 1.38006 1.22912 0.883704 1.07843 1.01527 1.10496 0.979145 1.2134 1.3168 1.40993 0.845196 1.33542 1.11904 0.907657 1.31491 0.943032 0.807878 1.31939 1.41914 1.05583 0.879242 0.977701 0.982648 1.41009 0.933122 0.933759 0.833261 1.16357 0.962045 1.0917 1.18268 1.49212 1.40125 1.05523 0.873255 1.41347 1.02782 1.12393 1.45855 0.998149 1.11427 1.0637 1.22219 0.804271 1.34588 1.30825 1.36386 1.04374 1.21847 1.25088 1.11666 1.39571 1.23782 1.37631 1.45913 1.25855 0.984122 1.02511 1.13363 1.179 1.10272 1.33359 1.39249 1.31892 1.3253 1.3069 
1.40554 1.0334 1.05962 1.32453 1.29521 1.31365 0.844443 1.46513 1.16452 1.46668 0.886439 1.14961 0.92749 1.34293 0.928407 1.41155 1.11954 1.26998 1.26561 1.19747 1.4497 0.892116 0.844583 0.901669 0.941098 0.984428 1.40385 1.45877 0.852008 0.896574 1.02431 1.05744 1.43212 1.43093 1.4755 0.956054 1.32331 1.2368 1.39545 1.43014 1.48454 1.26684 1.39821 0.9096 1.0183 0.806983 0.804464 1.34588 1.1025 1.22117 1.36424 1.24654 1.10112 0.943436 1.25382 1.09303 1.09997 1.46493 1.26661 1.20513 1.10927 0.847146 1.09214 1.19755 1.07027 0.933772 0.930183 0.896702 1.06148 0.973792 0.946958 1.22365 0.917957 1.33438 1.07486 0.829914 1.30295 1.49894 1.38446 1.37272 0.867083 0.81304 1.46435 0.838925 1.06216 1.02812 1.39757 1.13961 0.852519 1.27067 0.995265 1.31747 0.89553 1.34332 0.856539 1.03599 1.28013 1.28677 1.23374 1.45008 1.33368 1.23936 1.00516 1.38556 1.32724 1.23066 1.18592 1.25988 1.39883 1.03784 0.855228 0.858103 1.35593 1.32278 1.41107 1.15716 1.18494 1.2861 0.867723 1.42161 1.46527 1.42348 1.121 1.08174 1.42789 1.14889 1.13087 1.40495 1.01163 1.24169 1.45885 1.16921 1.22792 1.18415 1.24131 1.37325 1.49431 1.41104 0.870939 0.961468 1.49215 1.31108 1.163 0.90202 0.980203 1.303 0.864751 1.34878 1.17405 1.18481 0.820086 0.84332 0.815289 0.841115 1.40638 0.987563 1.17669 1.01541 0.877759 1.4877 1.00717 0.950664 0.944261 1.41684 1.29206 0.863676 0.958165 1.32513 1.16303 1.12192 1.22887 1.28936 0.867183 0.852484 1.0339 1.00063 1.04614 1.17268 1.36355 1.49421 1.46584 1.14855 1.00709 1.47436 1.40729 1.04849 1.10228 1.06517 1.43542 1.25006 1.32135 1.31174 1.04533 0.871438 1.18651 1.32771 1.31257 0.85104 1.10939 0.832609 
0.893127 1.37348 1.31597 1.41808 1.0881 1.30341 0.879163 1.22221 0.965322 1.22531 1.48577 1.43315 1.13463 1.33556 1.37353 0.978769 1.09035 1.40315 0.862147 1.4298 1.0954 1.12064 1.32496 1.1783 1.29922 1.30841 0.965058 1.14752 1.28836 1.17296 1.1971 0.973794 0.811274 1.43736 1.48921 1.06413 0.90764 1.34777 1.0648 1.28199 0.928812 1.19637 1.23234 1.29369 1.46787 0.918846 1.0506 1.46439 0.978277 1.45419 0.854784 0.904446 1.11837 1.20355 1.38868 1.33406 0.870117 1.01275 1.2634 1.22218 1.00122 0.958459 1.06064 1.0296 1.35551 1.47291 1.28493 1.48307 1.22482 1.13143 1.41541 1.187 1.09214 1.30403 1.35032 1.45982 0.994609 1.31971 1.16835 1.17404 1.00468 1.05086 0.877487 1.04692 1.17227 1.37261 1.37972 1.04876 1.1257 1.49894 0.861052 1.20737 1.43756 1.31964 0.987111 1.38237 0.994232 1.21296 1.16857 1.43194 1.12306 1.18367 0.934973 0.922547 1.24379 1.21003 1.16912 1.35211 1.20829 0.906176 1.38787 1.18617 1.02479 1.48027 0.994908 1.31066 1.07133 1.36279 0.872449 1.39964 1.06527 1.05268 0.952197 1.23316 1.0649 0.889444 1.41475 1.4322 0.922828 0.863373 0.939487 1.27289 1.17953 1.35406 1.4874 1.11209 1.2808 1.15365 1.30943 1.43699 1.07058 1.05236 1.44549 1.49285 0.820776 0.884372 1.21659 1.25146 1.20714 1.34898 1.4198 1.17734 1.36025 0.985239 0.818271 0.984977 1.13441 1.48474 1.09601 1.13159 0.948281 0.90979 1.34484 0.921858 1.41258 1.43219 0.894651 0.890902 1.11022 1.20703 1.05218 0.804659 0.817107 1.20764 1.10052 1.4239 0.80131 1.25952 1.47171 0.943148 0.873818 1.3514 1.14121 1.34691 0.821765 1.1716 1.47369 1.33748 1.30856 1.47076 0.963843 1.25123 1.39772 0.983967 1.44373 0.97311 0.940542 0.882005 0.941884 0.812991 
